…
```{.r .cell-code}
CCF(df, GDPC1, gdp_millions)
```

::: {.cell-output .cell-output-stdout}

```
# A tsibble: 43 x 2 [1Q]
        lag   ccf
   <cf_lag> <dbl>
 1     -21Q 0.711
 2     -20Q 0.722
 3     -19Q 0.733
 4     -18Q 0.745
 5     -17Q 0.757
 6     -16Q 0.769
 7     -15Q 0.780
 8     -14Q 0.790
 9     -13Q 0.801
10     -12Q 0.813
# ℹ 33 more rows
```
…
