…
::: {.cell-output .cell-output-stdout}

```
# A tsibble: 240 x 7 [1M]
   Month   chocolate    dates month  year stats_time month_seq
   <chr>       <int>    <mth> <fct> <dbl>      <dbl>     <int>
 1 2004-01        36 2004 Jan 1      2004      2004          1
 2 2004-02        45 2004 Feb 2      2004      2004.         2
 3 2004-03        29 2004 Mar 3      2004      2004.         3
 4 2004-04        32 2004 Apr 4      2004      2004.         4
 5 2004-05        29 2004 May 5      2004      2004.         5
 6 2004-06        26 2004 Jun 6      2004      2004.         6
 7 2004-07        27 2004 Jul 7      2004      2004.         7
 8 2004-08        27 2004 Aug 8      2004      2005.         8
 9 2004-09        29 2004 Sep 9      2004      2005.         9
10 2004-10        33 2004 Oct 10     2004      2005.        10
# ℹ 230 more rows
```
…
